フィルタ・セレクト・アレンジ – 水産海洋データ解析演習I・II
…
relocate(): 列の順序を変更する

library(tidyverse)

select(): 列を選ぶ

select() は、ティブル (tibble) から必要な列だけを選び出すための関数です。

分析に必要な列だけを残したり、特定の列を除外したりする場合に使います。

# starwarsデータから、名前、身長、体重の列だけを選ぶ
starwars |> select(name, height, mass)

# A tibble: 87 × 3
   name               height  mass
   <chr>               <int> <dbl>
 1 Luke Skywalker        172    77
 2 C-3PO                 167    75
 3 R2-D2                  96    32
 4 Darth Vader           202   136
 5 Leia Organa           150    49
 6 Owen Lars             178   120
 7 Beru Whitesun Lars    165    75
 8 R5-D4                  97    32
 9 Biggs Darklighter     183    84
10 Obi-Wan Kenobi        182    77
# ℹ 77 more rows

# name列からmass列まで、連続した列を選ぶ
starwars |> select(name:mass)

# A tibble: 87 × 3
   name               height  mass
   <chr>               <int> <dbl>
 1 Luke Skywalker        172    77
 2 C-3PO                 167    75
 3 R2-D2                  96    32
 4 Darth Vader           202   136
 5 Leia Organa           150    49
 6 Owen Lars             178   120
 7 Beru Whitesun Lars    165    75
 8 R5-D4                  97    32
 9 Biggs Darklighter     183    84
10 Obi-Wan Kenobi        182    77
# ℹ 77 more rows

# hair_color列を「除外」する
starwars |> select(-hair_color)

# A tibble: 87 × 13
   name      height  mass skin_color eye_color birth_year sex   gender homeworld
   <chr>      <int> <dbl> <chr>      <chr>          <dbl> <chr> <chr>  <chr>    
 1 Luke Sky…    172    77 fair       blue            19   male  mascu… Tatooine 
 2 C-3PO        167    75 gold       yellow         112   none  mascu… Tatooine 
 3 R2-D2         96    32 white, bl… red             33   none  mascu… Naboo    
 4 Darth Va…    202   136 white      yellow          41.9 male  mascu… Tatooine 
 5 Leia Org…    150    49 light      brown           19   fema… femin… Alderaan 
 6 Owen Lars    178   120 light      blue            52   male  mascu… Tatooine 
 7 Beru Whi…    165    75 light      blue            47   fema… femin… Tatooine 
 8 R5-D4         97    32 white, red red             NA   none  mascu… Tatooine 
 9 Biggs Da…    183    84 light      brown           24   male  mascu… Tatooine 
10 Obi-Wan …    182    77 fair       blue-gray       57   male  mascu… Stewjon  
# ℹ 77 more rows
# ℹ 4 more variables: species <chr>, films <list>, vehicles <list>,
#   starships <list>

# "color"で終わる名前の列をすべて選ぶ
starwars |> select(ends_with("color"))

# A tibble: 87 × 3
   hair_color    skin_color  eye_color
   <chr>         <chr>       <chr>    
 1 blond         fair        blue     
 2 <NA>          gold        yellow   
 3 <NA>          white, blue red      
 4 none          white       yellow   
 5 brown         light       brown    
 6 brown, grey   light       blue     
 7 brown         light       blue     
 8 <NA>          white, red  red      
 9 black         light       brown    
10 auburn, white fair        blue-gray
# ℹ 77 more rows
…
contains(): 名前に指定した文字が含まれる列をすべて選びます（位置は問いません）。

matches(): 正規表現 (Regular Expression) という、文字列の高度なパターンマッチング言語を使って列名を選びます。contains() などが単純な単語を探すのに対し、matches() は「A または B を含む」や「s で始まり t で終わる」といった、より複雑なルールを指定できます。

where(): 列のデータ型（数値、文字列など）に基づいて列を選ぶ、少し高度ですが強力なヘルパーです。

where(is.numeric): 数値型の列をすべて選びます。

where(is.character): 文字列型の列をすべて選びます。

# 文字列型の列をすべて選ぶ
starwars |> select(where(is.character))

# A tibble: 87 × 8
   name           hair_color skin_color eye_color sex   gender homeworld species
   <chr>          <chr>      <chr>      <chr>     <chr> <chr>  <chr>     <chr>  
 1 Luke Skywalker blond      fair       blue      male  mascu… Tatooine  Human  
 2 C-3PO          <NA>       gold       yellow    none  mascu… Tatooine  Droid  
 3 R2-D2          <NA>       white, bl… red       none  mascu… Naboo     Droid  
 4 Darth Vader    none       white      yellow    male  mascu… Tatooine  Human  
 5 Leia Organa    brown      light      brown     fema… femin… Alderaan  Human  
 6 Owen Lars      brown, gr… light      blue      male  mascu… Tatooine  Human  
 7 Beru Whitesun… brown      light      blue      fema… femin… Tatooine  Human  
 8 R5-D4          <NA>       white, red red       none  mascu… Tatooine  Droid  
 9 Biggs Darklig… black      light      brown     male  mascu… Tatooine  Human  
10 Obi-Wan Kenobi auburn, w… fair       blue-gray male  mascu… Stewjon   Human  
# ℹ 77 more rows

filter(): 行を絞り込む

filter() は、指定した条件に一致する行だけを絞り込むための関数です。

データの特定のサブセット（例：特定の種族のキャラクター、特定の条件を満たす観測など）を抽出する際に使います。

# 種族 (species) が "Human" のキャラクターだけを絞り込む
starwars |> filter(species == "Human")

# A tibble: 35 × 14
   name     height  mass hair_color skin_color eye_color birth_year sex   gender
   <chr>     <int> <dbl> <chr>      <chr>      <chr>          <dbl> <chr> <chr> 
 1 Luke Sk…    172    77 blond      fair       blue            19   male  mascu…
 2 Darth V…    202   136 none       white      yellow          41.9 male  mascu…
 3 Leia Or…    150    49 brown      light      brown           19   fema… femin…
 4 Owen La…    178   120 brown, gr… light      blue            52   male  mascu…
 5 Beru Wh…    165    75 brown      light      blue            47   fema… femin…
 6 Biggs D…    183    84 black      light      brown           24   male  mascu…
 7 Obi-Wan…    182    77 auburn, w… fair       blue-gray       57   male  mascu…
 8 Anakin …    188    84 blond      fair       blue            41.9 male  mascu…
 9 Wilhuff…    180    NA auburn, g… fair       blue            64   male  mascu…
10 Han Solo    180    80 brown      fair       brown           29   male  mascu…
# ℹ 25 more rows
# ℹ 5 more variables: homeworld <chr>, species <chr>, films <list>,
#   vehicles <list>, starships <list>

# 身長 (height) が180cmより大きいキャラクターを絞り込む
starwars |> filter(height > 180)

# A tibble: 39 × 14
   name     height  mass hair_color skin_color eye_color birth_year sex   gender
   <chr>     <int> <dbl> <chr>      <chr>      <chr>          <dbl> <chr> <chr> 
 1 Darth V…    202 136   none       white      yellow          41.9 male  mascu…
 2 Biggs D…    183  84   black      light      brown           24   male  mascu…
 3 Obi-Wan…    182  77   auburn, w… fair       blue-gray       57   male  mascu…
 4 Anakin …    188  84   blond      fair       blue            41.9 male  mascu…
 5 Chewbac…    228 112   brown      unknown    blue           200   male  mascu…
 6 Boba Fe…    183  78.2 black      fair       brown           31.5 male  mascu…
 7 IG-88       200 140   none       metal      red             15   none  mascu…
 8 Bossk       190 113   none       green      red             53   male  mascu…
 9 Qui-Gon…    193  89   brown      fair       blue            92   male  mascu…
10 Nute Gu…    191  90   none       mottled g… red             NA   male  mascu…
# ℹ 29 more rows
# ℹ 5 more variables: homeworld <chr>, species <chr>, films <list>,
#   vehicles <list>, starships <list>
…
# 複数の条件のいずれかを満たす (髪の色が "blond" 「または」 "brown")
# | は「または」(OR) を意味します
starwars |>  filter(hair_color == "blond" | hair_color == "brown")

# A tibble: 21 × 14
   name     height  mass hair_color skin_color eye_color birth_year sex   gender
   <chr>     <int> <dbl> <chr>      <chr>      <chr>          <dbl> <chr> <chr> 
 1 Luke Sk…    172    77 blond      fair       blue            19   male  mascu…
 2 Leia Or…    150    49 brown      light      brown           19   fema… femin…
 3 Beru Wh…    165    75 brown      light      blue            47   fema… femin…
 4 Anakin …    188    84 blond      fair       blue            41.9 male  mascu…
 5 Chewbac…    228   112 brown      unknown    blue           200   male  mascu…
 6 Han Solo    180    80 brown      fair       brown           29   male  mascu…
 7 Wedge A…    170    77 brown      fair       hazel           21   male  mascu…
 8 Jek Ton…    180   110 brown      fair       blue            NA   <NA>  <NA>  
 9 Arvel C…     NA    NA brown      fair       brown           NA   male  mascu…
10 Wicket …     88    20 brown      brown      brown            8   male  mascu…
# ℹ 11 more rows
# ℹ 5 more variables: homeworld <chr>, species <chr>, films <list>,
#   vehicles <list>, starships <list>

filter() のヘルパー関数

is.na(): データ分析では欠損値 NA (Not Available) の扱いは非常に重要です。is.na() を使うと、特定の列が NA である行、あるいは NA ではない行を簡単に絞り込めます。

str_detect(): stringr パッケージ (tidyverse に含まれる) の関数で、文字列の中に 特定のパターンが含まれているか を判定します。完全一致 (==) よりも柔軟な検索が可能です。

between(): 数値がある範囲の 間にあるか を判定します。列名 >= 最小値 & 列名 <= 最大値 と書くよりも直感的で分かりやすいです。

%in%: | (または) を何度も書く代わりに、指定した複数の値の いずれかに含まれるか を判定します。コードが非常にすっきりと読みやすくなります。

starwars |> filter(is.na(mass))

# A tibble: 28 × 14
   name     height  mass hair_color skin_color eye_color birth_year sex   gender
   <chr>     <int> <dbl> <chr>      <chr>      <chr>          <dbl> <chr> <chr> 
 1 Wilhuff…    180    NA auburn, g… fair       blue              64 male  mascu…
 2 Mon Mot…    150    NA auburn     fair       blue              48 fema… femin…
 3 Arvel C…     NA    NA brown      fair       brown             NA male  mascu…
 4 Finis V…    170    NA blond      fair       blue              91 male  mascu…
 5 Rugor N…    206    NA none       green      orange            NA male  mascu…
 6 Ric Olié    183    NA brown      fair       blue              NA male  mascu…
 7 Watto       137    NA black      blue, grey yellow            NA male  mascu…
 8 Quarsh …    183    NA black      dark       brown             62 male  mascu…
 9 Shmi Sk…    163    NA black      fair       brown             72 fema… femin…
10 Bib For…    180    NA none       pale       pink              NA male  mascu…
# ℹ 18 more rows
# ℹ 5 more variables: homeworld <chr>, species <chr>, films <list>,
#   vehicles <list>, starships <list>

starwars |> filter(!is.na(mass))

# A tibble: 59 × 14
   name     height  mass hair_color skin_color eye_color birth_year sex   gender
   <chr>     <int> <dbl> <chr>      <chr>      <chr>          <dbl> <chr> <chr> 
 1 Luke Sk…    172    77 blond      fair       blue            19   male  mascu…
 2 C-3PO       167    75 <NA>       gold       yellow         112   none  mascu…
 3 R2-D2        96    32 <NA>       white, bl… red             33   none  mascu…
 4 Darth V…    202   136 none       white      yellow          41.9 male  mascu…
 5 Leia Or…    150    49 brown      light      brown           19   fema… femin…
 6 Owen La…    178   120 brown, gr… light      blue            52   male  mascu…
 7 Beru Wh…    165    75 brown      light      blue            47   fema… femin…
 8 R5-D4        97    32 <NA>       white, red red             NA   none  mascu…
 9 Biggs D…    183    84 black      light      brown           24   male  mascu…
10 Obi-Wan…    182    77 auburn, w… fair       blue-gray       57   male  mascu…
# ℹ 49 more rows
# ℹ 5 more variables: homeworld <chr>, species <chr>, films <list>,
#   vehicles <list>, starships <list>
…
# mass が NA の時に絞り込む
starwars |>  filter(is.na(mass))

# A tibble: 28 × 14
   name     height  mass hair_color skin_color eye_color birth_year sex   gender
   <chr>     <int> <dbl> <chr>      <chr>      <chr>          <dbl> <chr> <chr> 
 1 Wilhuff…    180    NA auburn, g… fair       blue              64 male  mascu…
 2 Mon Mot…    150    NA auburn     fair       blue              48 fema… femin…
 3 Arvel C…     NA    NA brown      fair       brown             NA male  mascu…
 4 Finis V…    170    NA blond      fair       blue              91 male  mascu…
 5 Rugor N…    206    NA none       green      orange            NA male  mascu…
 6 Ric Olié    183    NA brown      fair       blue              NA male  mascu…
 7 Watto       137    NA black      blue, grey yellow            NA male  mascu…
 8 Quarsh …    183    NA black      dark       brown             62 male  mascu…
 9 Shmi Sk…    163    NA black      fair       brown             72 fema… femin…
10 Bib For…    180    NA none       pale       pink              NA male  mascu…
# ℹ 18 more rows
# ℹ 5 more variables: homeworld <chr>, species <chr>, films <list>,
#   vehicles <list>, starships <list>

# mass が NA じゃない時に絞り込む
starwars |>  filter(!is.na(mass))

# A tibble: 59 × 14
   name     height  mass hair_color skin_color eye_color birth_year sex   gender
   <chr>     <int> <dbl> <chr>      <chr>      <chr>          <dbl> <chr> <chr> 
 1 Luke Sk…    172    77 blond      fair       blue            19   male  mascu…
 2 C-3PO       167    75 <NA>       gold       yellow         112   none  mascu…
 3 R2-D2        96    32 <NA>       white, bl… red             33   none  mascu…
 4 Darth V…    202   136 none       white      yellow          41.9 male  mascu…
 5 Leia Or…    150    49 brown      light      brown           19   fema… femin…
 6 Owen La…    178   120 brown, gr… light      blue            52   male  mascu…
 7 Beru Wh…    165    75 brown      light      blue            47   fema… femin…
 8 R5-D4        97    32 <NA>       white, red red             NA   none  mascu…
 9 Biggs D…    183    84 black      light      brown           24   male  mascu…
10 Obi-Wan…    182    77 auburn, w… fair       blue-gray       57   male  mascu…
# ℹ 49 more rows
# ℹ 5 more variables: homeworld <chr>, species <chr>, films <list>,
#   vehicles <list>, starships <list>

arrange(): 行を並べ替える

arrange() は、指定した列の値に基づいて行の順序を並べ替えるための関数です。

デフォルトでは昇順（小さい順、アルファベット順）に並べ替えます。降順にするには desc() を使います。

# 体重 (mass) が軽い順に並べ替える
starwars |> arrange(mass)

# A tibble: 87 × 14
   name     height  mass hair_color skin_color eye_color birth_year sex   gender
   <chr>     <int> <dbl> <chr>      <chr>      <chr>          <dbl> <chr> <chr> 
 1 Ratts T…     79    15 none       grey, blue unknown           NA male  mascu…
 2 Yoda         66    17 white      green      brown            896 male  mascu…
 3 Wicket …     88    20 brown      brown      brown              8 male  mascu…
 4 R2-D2        96    32 <NA>       white, bl… red               33 none  mascu…
 5 R5-D4        97    32 <NA>       white, red red               NA none  mascu…
 6 Sebulba     112    40 none       grey, red  orange            NA male  mascu…
 7 Padmé A…    185    45 brown      light      brown             46 fema… femin…
 8 Dud Bolt     94    45 none       blue, grey yellow            NA male  mascu…
 9 Wat Tam…    193    48 none       green, gr… unknown           NA male  mascu…
10 Sly Moo…    178    48 none       pale       white             NA <NA>  <NA>  
# ℹ 77 more rows
# ℹ 5 more variables: homeworld <chr>, species <chr>, films <list>,
#   vehicles <list>, starships <list>

# 身長 (height) が高い順に並べ替える
starwars |> arrange(desc(height))

# A tibble: 87 × 14
   name     height  mass hair_color skin_color eye_color birth_year sex   gender
   <chr>     <int> <dbl> <chr>      <chr>      <chr>          <dbl> <chr> <chr> 
 1 Yarael …    264    NA none       white      yellow          NA   male  mascu…
 2 Tarfful     234   136 brown      brown      blue            NA   male  mascu…
 3 Lama Su     229    88 none       grey       black           NA   male  mascu…
 4 Chewbac…    228   112 brown      unknown    blue           200   male  mascu…
 5 Roos Ta…    224    82 none       grey       orange          NA   male  mascu…
 6 Grievous    216   159 none       brown, wh… green, y…       NA   male  mascu…
 7 Taun We     213    NA none       grey       black           NA   fema… femin…
 8 Rugor N…    206    NA none       green      orange          NA   male  mascu…
 9 Tion Me…    206    80 none       grey       black           NA   male  mascu…
10 Darth V…    202   136 none       white      yellow          41.9 male  mascu…
# ℹ 77 more rows
# ℹ 5 more variables: homeworld <chr>, species <chr>, films <list>,
#   vehicles <list>, starships <list>

# 複数の列で並べ替える (種族で並べ替え、同じ種族の中では身長が高い順に並べ替える)
starwars |> arrange(species, desc(height))

# A tibble: 87 × 14
   name     height  mass hair_color skin_color eye_color birth_year sex   gender
   <chr>     <int> <dbl> <chr>      <chr>      <chr>          <dbl> <chr> <chr> 
 1 Ratts T…     79    15 none       grey, blue unknown           NA male  mascu…
 2 Dexter …    198   102 none       brown      yellow            NA male  mascu…
 3 Ki-Adi-…    198    82 white      pale       yellow            92 male  mascu…
 4 Mas Ame…    196    NA none       blue       blue              NA male  mascu…
 5 Zam Wes…    168    55 blonde     fair, gre… yellow            NA fema… femin…
 6 IG-88       200   140 none       metal      red               15 none  mascu…
 7 C-3PO       167    75 <NA>       gold       yellow           112 none  mascu…
 8 R5-D4        97    32 <NA>       white, red red               NA none  mascu…
 9 R2-D2        96    32 <NA>       white, bl… red               33 none  mascu…
10 R4-P17       96    NA none       silver, r… red, blue         NA none  femin…
# ℹ 77 more rows
# ℹ 5 more variables: homeworld <chr>, species <chr>, films <list>,
#   vehicles <list>, starships <list>

relocate(): 列の順序を変更する

relocate() は、データフレームの列の順序を自由に変更するための関数です。

特定の列を先頭に持ってきたり、関連する列を隣同士に並べたりして、データをみやすくするのに役立ちます。

# `homeworld` と `species` の列を先頭に移動する
starwars |> relocate(homeworld, species)

# A tibble: 87 × 14
   homeworld species name           height  mass hair_color skin_color eye_color
   <chr>     <chr>   <chr>           <int> <dbl> <chr>      <chr>      <chr>    
 1 Tatooine  Human   Luke Skywalker    172    77 blond      fair       blue     
 2 Tatooine  Droid   C-3PO             167    75 <NA>       gold       yellow   
 3 Naboo     Droid   R2-D2              96    32 <NA>       white, bl… red      
 4 Tatooine  Human   Darth Vader       202   136 none       white      yellow   
 5 Alderaan  Human   Leia Organa       150    49 brown      light      brown    
 6 Tatooine  Human   Owen Lars         178   120 brown, gr… light      blue     
 7 Tatooine  Human   Beru Whitesun…    165    75 brown      light      blue     
 8 Tatooine  Droid   R5-D4              97    32 <NA>       white, red red      
 9 Tatooine  Human   Biggs Darklig…    183    84 black      light      brown    
10 Stewjon   Human   Obi-Wan Kenobi    182    77 auburn, w… fair       blue-gray
# ℹ 77 more rows
# ℹ 6 more variables: birth_year <dbl>, sex <chr>, gender <chr>, films <list>,
#   vehicles <list>, starships <list>

# `birth_year` 列を `name` 列のすぐ後ろに移動する
starwars |> relocate(birth_year, .after = name)

# A tibble: 87 × 14
   name     birth_year height  mass hair_color skin_color eye_color sex   gender
   <chr>         <dbl>  <int> <dbl> <chr>      <chr>      <chr>     <chr> <chr> 
 1 Luke Sk…       19      172    77 blond      fair       blue      male  mascu…
 2 C-3PO         112      167    75 <NA>       gold       yellow    none  mascu…
 3 R2-D2          33       96    32 <NA>       white, bl… red       none  mascu…
 4 Darth V…       41.9    202   136 none       white      yellow    male  mascu…
 5 Leia Or…       19      150    49 brown      light      brown     fema… femin…
 6 Owen La…       52      178   120 brown, gr… light      blue      male  mascu…
 7 Beru Wh…       47      165    75 brown      light      blue      fema… femin…
 8 R5-D4          NA       97    32 <NA>       white, red red       none  mascu…
 9 Biggs D…       24      183    84 black      light      brown     male  mascu…
10 Obi-Wan…       57      182    77 auburn, w… fair       blue-gray male  mascu…
# ℹ 77 more rows
# ℹ 5 more variables: homeworld <chr>, species <chr>, films <list>,
#   vehicles <list>, starships <list>
…
